Housing Model
…
Housing Model

Jackson Hamilton

3/25/2020

library(ggplot2)

Data Summary

library(readxl)
Housing <- read_excel("Housing.xlsx")
Housing

## # A tibble: 76 x 11
##       id price  size   lot  bath bedrooms yearbuilt agestandardized garagesize
##    <dbl> <dbl> <dbl> <dbl> <dbl>    <dbl>     <dbl>           <dbl>      <dbl>
##  1     1  388   2.18     4   3          4      1940            -3            0
##  2     2  450   2.05     5   3          4      1957            -1.3          2
##  3     3  386   2.11     5   2          4      1955            -1.5          2
##  4     4  350   1.44     6   1          2      1956            -1.4          1
##  5     5  156.  1.8      1   2          4      1994             2.4          1
##  6     6  220   1.96     5   2          3      1940            -3            1
##  7     7  240.  1.8      4   1.1        4      1958            -1.2          1
##  8     8  207   2.25     4   2          4      1961            -0.9          2
##  9     9  270.  1.92     4   2.1        4      1965            -0.5          2
## 10    10  239.  1.92     5   2.1        3      1968            -0.2          2
## #  with 66 more rows, and 2 more variables: status <chr>, elem <chr>
…
